%YAML 1.1
%TAG !u! tag:unity3d.com,2011:
--- !u!21 &2100000
Material:
  serializedVersion: 3
  m_ObjectHideFlags: 0
  m_PrefabParentObject: {fileID: 0}
  m_PrefabInternal: {fileID: 0}
  m_Name: Enemy Target Ring Mat
  m_Shader: {fileID: 4800000, guid: ab70c098a52a04be88096d20e1540cb8, type: 3}
  m_ShaderKeywords: []
  m_CustomRenderQueue: -1
  m_SavedProperties:
    serializedVersion: 2
    m_TexEnvs:
      data:
        first:
          name: _MainTex
        second:
          m_Texture: {fileID: 0}
          m_Scale: {x: 1, y: 1}
          m_Offset: {x: 0, y: 0}
      data:
        first:
          name: _ShadowTex
        second:
          m_Texture: {fileID: 2800000, guid: 484427e992d7ee349ac5c16b051453c5, type: 3}
          m_Scale: {x: 1, y: 1}
          m_Offset: {x: 0, y: 0}
      data:
        first:
          name: _FalloffTex
        second:
          m_Texture: {fileID: 2800000, guid: cc90a732ad112a541100162a44295342, type: 3}
          m_Scale: {x: 1, y: 1}
          m_Offset: {x: 0, y: 0}
    m_Floats: {}
    m_Colors:
      data:
        first:
          name: _Color
        second: {r: 1, g: .91922003, b: 0, a: 1}
--- !u!1002 &2100001
EditorExtensionImpl:
  serializedVersion: 6
