%YAML 1.1
%TAG !u! tag:unity3d.com,2011:
--- !u!74 &7400000
AnimationClip:
  m_ObjectHideFlags: 0
  m_PrefabParentObject: {fileID: 0}
  m_PrefabInternal: {fileID: 0}
  m_Name: portal_rotate
  serializedVersion: 4
  m_AnimationType: 2
  m_Compressed: 0
  m_UseHighQualityCurve: 1
  m_RotationCurves:
  - curve:
      serializedVersion: 2
      m_Curve:
      - time: 0
        value: {x: -0, y: -0, z: -0, w: -1}
        inSlope: {x: 0, y: 0, z: -1.57061708, w: .0205600243}
        outSlope: {x: 0, y: 0, z: -1.57061708, w: .0205600243}
        tangentMode: -2147483648
      - time: .0166666675
        value: {x: -0, y: -0, z: -.0261769518, w: -.999657333}
        inSlope: {x: 0, y: 0, z: -1.57007885, w: .0411146842}
        outSlope: {x: 0, y: 0, z: -1.57007885, w: .0411146842}
        tangentMode: 1059529460
      - time: .0333333351
        value: {x: -0, y: -0, z: -.0523359627, w: -.99862951}
        inSlope: {x: 0, y: 0, z: -1.56846452, w: .0822007582}
        outSlope: {x: 0, y: 0, z: -1.56846452, w: .0822007582}
        tangentMode: 2
      - time: .0500000045
        value: {x: -0, y: -0, z: -.0784591064, w: -.996917307}
        inSlope: {x: 0, y: 0, z: -1.56577516, w: .123227835}
        outSlope: {x: 0, y: 0, z: -1.56577516, w: .123227835}
        tangentMode: 0
      - time: .0666666701
        value: {x: -0, y: -0, z: -.104528472, w: -.994521916}
        inSlope: {x: 0, y: 0, z: -1.56201291, w: .164172664}
        outSlope: {x: 0, y: 0, z: -1.56201291, w: .164172664}
        tangentMode: -1080235386
      - time: .0833333358
        value: {x: -0, y: -0, z: -.1305262, w: -.991444886}
        inSlope: {x: 0, y: 0, z: -1.55718017, w: .205006614}
        outSlope: {x: 0, y: 0, z: -1.55718017, w: .205006614}
        tangentMode: 0
      - time: .100000001
        value: {x: -0, y: -0, z: -.156434476, w: -.987688363}
        inSlope: {x: 0, y: 0, z: -1.55127978, w: .245699316}
        outSlope: {x: 0, y: 0, z: -1.55127978, w: .245699316}
        tangentMode: 0
      - time: .116666667
        value: {x: -0, y: -0, z: -.182235524, w: -.98325491}
        inSlope: {x: 0, y: 0, z: -1.54431689, w: .286222041}
        outSlope: {x: 0, y: 0, z: -1.54431689, w: .286222041}
        tangentMode: 867941678
      - time: .13333334
        value: {x: -0, y: -0, z: -.207911715, w: -.978147626}
        inSlope: {x: 0, y: 0, z: -1.53629577, w: .326549947}
        outSlope: {x: 0, y: 0, z: -1.53629577, w: .326549947}
        tangentMode: -1
      - time: .150000006
        value: {x: -0, y: -0, z: -.233445391, w: -.972369909}
        inSlope: {x: 0, y: 0, z: -1.52722001, w: .366654426}
        outSlope: {x: 0, y: 0, z: -1.52722001, w: .366654426}
        tangentMode: -1
      - time: .166666672
        value: {x: -0, y: -0, z: -.258819044, w: -.965925813}
        inSlope: {x: 0, y: 0, z: -1.51709914, w: .406504899}
        outSlope: {x: 0, y: 0, z: -1.51709914, w: .406504899}
        tangentMode: 2499
      - time: .183333337
        value: {x: -0, y: -0, z: -.284015357, w: -.958819747}
        inSlope: {x: 0, y: 0, z: -1.50593889, w: .446078211}
        outSlope: {x: 0, y: 0, z: -1.50593889, w: .446078211}
        tangentMode: 0
      - time: .200000003
        value: {x: -0, y: -0, z: -.309017003, w: -.95105654}
        inSlope: {x: 0, y: 0, z: -1.49374557, w: .485347569}
        outSlope: {x: 0, y: 0, z: -1.49374557, w: .485347569}
        tangentMode: 0
      - time: .216666669
        value: {x: -0, y: -0, z: -.333806872, w: -.942641497}
        inSlope: {x: 0, y: 0, z: -1.48052859, w: .524284303}
        outSlope: {x: 0, y: 0, z: -1.48052859, w: .524284303}
        tangentMode: -2147483648
      - time: .233333334
        value: {x: -0, y: -0, z: -.35836795, w: -.933580399}
        inSlope: {x: 0, y: 0, z: -1.46629763, w: .562859833}
        outSlope: {x: 0, y: 0, z: -1.46629763, w: .562859833}
        tangentMode: 1042983595
      - time: .25
        value: {x: -0, y: -0, z: -.382683456, w: -.923879504}
        inSlope: {x: 0, y: 0, z: -1.45106113, w: .601048827}
        outSlope: {x: 0, y: 0, z: -1.45106113, w: .601048827}
        tangentMode: 0
      - time: .266666681
        value: {x: -0, y: -0, z: -.406736672, w: -.91354543}
        inSlope: {x: 0, y: 0, z: -1.43482947, w: .638826549}
        outSlope: {x: 0, y: 0, z: -1.43482947, w: .638826549}
        tangentMode: 0
      - time: .283333361
        value: {x: -0, y: -0, z: -.430511147, w: -.902585268}
        inSlope: {x: 0, y: 0, z: -1.41761601, w: .676168203}
        outSlope: {x: 0, y: 0, z: -1.41761601, w: .676168203}
        tangentMode: 0
      - time: .300000042
        value: {x: -0, y: -0, z: -.453990579, w: -.89100647}
        inSlope: {x: 0, y: 0, z: -1.3994298, w: .713045001}
        outSlope: {x: 0, y: 0, z: -1.3994298, w: .713045001}
        tangentMode: -2147483648
      - time: .316666722
        value: {x: -0, y: -0, z: -.477158844, w: -.878817081}
        inSlope: {x: 0, y: 0, z: -1.38028324, w: .749431849}
        outSlope: {x: 0, y: 0, z: -1.38028324, w: .749431849}
        tangentMode: 1053609169
      - time: .333333403
        value: {x: -0, y: -0, z: -.50000006, w: -.866025388}
        inSlope: {x: 0, y: 0, z: -1.36019349, w: .785309017}
        outSlope: {x: 0, y: 0, z: -1.36019349, w: .785309017}
        tangentMode: 0
      - time: .350000083
        value: {x: -0, y: -0, z: -.522498667, w: -.852640092}
        inSlope: {x: 0, y: 0, z: -1.33917224, w: .820646167}
        outSlope: {x: 0, y: 0, z: -1.33917224, w: .820646167}
        tangentMode: 0
      - time: .366666764
        value: {x: -0, y: -0, z: -.54463917, w: -.838670492}
        inSlope: {x: 0, y: 0, z: -1.31722999, w: .855418324}
        outSlope: {x: 0, y: 0, z: -1.31722999, w: .855418324}
        tangentMode: 0
      - time: .383333445
        value: {x: -0, y: -0, z: -.566406369, w: -.824126124}
        inSlope: {x: 0, y: 0, z: -1.29438651, w: .889607549}
        outSlope: {x: 0, y: 0, z: -1.29438651, w: .889607549}
        tangentMode: -2147483648
      - time: .400000125
        value: {x: -0, y: -0, z: -.587785423, w: -.809016883}
        inSlope: {x: 0, y: 0, z: -1.27065432, w: .92318517}
        outSlope: {x: 0, y: 0, z: -1.27065432, w: .92318517}
        tangentMode: 1059201571
      - time: .416666806
        value: {x: -0, y: -0, z: -.608761549, w: -.79335326}
        inSlope: {x: 0, y: 0, z: -1.2460531, w: .956131577}
        outSlope: {x: 0, y: 0, z: -1.2460531, w: .956131577}
        tangentMode: 0
      - time: .433333486
        value: {x: -0, y: -0, z: -.629320562, w: -.777145803}
        inSlope: {x: 0, y: 0, z: -1.22060084, w: .988423586}
        outSlope: {x: 0, y: 0, z: -1.22060084, w: .988423586}
        tangentMode: 0
      - time: .450000167
        value: {x: -0, y: -0, z: -.649448276, w: -.760405779}
        inSlope: {x: 0, y: 0, z: -1.19430625, w: 1.02003431}
        outSlope: {x: 0, y: 0, z: -1.19430625, w: 1.02003431}
        tangentMode: 0
      - time: .466666847
        value: {x: -0, y: -0, z: -.669130802, w: -.743144631}
        inSlope: {x: 0, y: 0, z: -1.16719627, w: 1.05094945}
        outSlope: {x: 0, y: 0, z: -1.16719627, w: 1.05094945}
        tangentMode: -2147483648
      - time: .483333528
        value: {x: -0, y: -0, z: -.68835485, w: -.725374103}
        inSlope: {x: 0, y: 0, z: -1.13928437, w: 1.08114135}
        outSlope: {x: 0, y: 0, z: -1.13928437, w: 1.08114135}
        tangentMode: 1063116251
      - time: .500000179
        value: {x: -0, y: -0, z: -.707106948, w: -.70710659}
        inSlope: {x: 0, y: 0, z: -1.11059117, w: 1.11059117}
        outSlope: {x: 0, y: 0, z: -1.11059117, w: 1.11059117}
        tangentMode: 0
      - time: .51666683
        value: {x: -0, y: -0, z: -.72537452, w: -.688354433}
        inSlope: {x: 0, y: 0, z: -1.08114231, w: 1.13928545}
        outSlope: {x: 0, y: 0, z: -1.08114231, w: 1.13928545}
        tangentMode: 0
      - time: .53333348
        value: {x: -0, y: -0, z: -.743144989, w: -.669130445}
        inSlope: {x: 0, y: 0, z: -1.05094767, w: 1.16719651}
        outSlope: {x: 0, y: 0, z: -1.05094767, w: 1.16719651}
        tangentMode: 0
      - time: .550000131
        value: {x: -0, y: -0, z: -.760406077, w: -.649447918}
        inSlope: {x: 0, y: 0, z: -1.02003431, w: 1.19430828}
        outSlope: {x: 0, y: 0, z: -1.02003431, w: 1.19430828}
        tangentMode: -2147483648
      - time: .566666782
        value: {x: -0, y: -0, z: -.777146101, w: -.629320204}
        inSlope: {x: 0, y: 0, z: -.988421798, w: 1.22059941}
        outSlope: {x: 0, y: 0, z: -.988421798, w: 1.22059941}
        tangentMode: 1066192074
      - time: .583333433
        value: {x: -0, y: -0, z: -.793353438, w: -.608761311}
        inSlope: {x: 0, y: 0, z: -.956129789, w: 1.24605358}
        outSlope: {x: 0, y: 0, z: -.956129789, w: 1.24605358}
        tangentMode: 0
      - time: .600000083
        value: {x: -0, y: -0, z: -.809017062, w: -.587785125}
        inSlope: {x: 0, y: 0, z: -.92318505, w: 1.27065659}
        outSlope: {x: 0, y: 0, z: -.92318505, w: 1.27065659}
        tangentMode: 0
      - time: .616666734
        value: {x: -0, y: -0, z: -.824126244, w: -.566406131}
        inSlope: {x: 0, y: 0, z: -.88960731, w: 1.29438519}
        outSlope: {x: 0, y: 0, z: -.88960731, w: 1.29438519}
        tangentMode: 0
      - time: .633333385
        value: {x: -0, y: -0, z: -.838670611, w: -.544638991}
        inSlope: {x: 0, y: 0, z: -.855419874, w: 1.31723046}
        outSlope: {x: 0, y: 0, z: -.855419874, w: 1.31723046}
        tangentMode: -2147483648
      - time: .650000036
        value: {x: -0, y: -0, z: -.852640212, w: -.522498488}
        inSlope: {x: 0, y: 0, z: -.820645869, w: 1.33917189}
        outSlope: {x: 0, y: 0, z: -.820645869, w: 1.33917189}
        tangentMode: 1068149414
      - time: .666666687
        value: {x: -0, y: -0, z: -.866025448, w: -.49999997}
        inSlope: {x: 0, y: 0, z: -.785308599, w: 1.36019325}
        outSlope: {x: 0, y: 0, z: -.785308599, w: 1.36019325}
        tangentMode: 0
      - time: .683333337
        value: {x: -0, y: -0, z: -.878817141, w: -.477158755}
        inSlope: {x: 0, y: 0, z: -.74943316, w: 1.38028479}
        outSlope: {x: 0, y: 0, z: -.74943316, w: 1.38028479}
        tangentMode: 0
      - time: .699999988
        value: {x: -0, y: -0, z: -.891006529, w: -.453990519}
        inSlope: {x: 0, y: 0, z: -.713044524, w: 1.39942956}
        outSlope: {x: 0, y: 0, z: -.713044524, w: 1.39942956}
        tangentMode: 0
      - time: .716666639
        value: {x: -0, y: -0, z: -.902585268, w: -.430511147}
        inSlope: {x: 0, y: 0, z: -.676167667, w: 1.41761494}
        outSlope: {x: 0, y: 0, z: -.676167667, w: 1.41761494}
        tangentMode: -2147483648
      - time: .73333329
        value: {x: -0, y: -0, z: -.91354543, w: -.406736732}
        inSlope: {x: 0, y: 0, z: -.638827682, w: 1.43482947}
        outSlope: {x: 0, y: 0, z: -.638827682, w: 1.43482947}
        tangentMode: 1070106754
      - time: .74999994
        value: {x: -0, y: -0, z: -.923879504, w: -.382683545}
        inSlope: {x: 0, y: 0, z: -.601049662, w: 1.45106041}
        outSlope: {x: 0, y: 0, z: -.601049662, w: 1.45106041}
        tangentMode: 0
      - time: .766666591
        value: {x: -0, y: -0, z: -.933580399, w: -.358368099}
        inSlope: {x: 0, y: 0, z: -.562858522, w: 1.46629715}
        outSlope: {x: 0, y: 0, z: -.562858522, w: 1.46629715}
        tangentMode: 0
      - time: .783333242
        value: {x: -0, y: -0, z: -.942641437, w: -.333807021}
        inSlope: {x: 0, y: 0, z: -.524282932, w: 1.48053253}
        outSlope: {x: 0, y: 0, z: -.524282932, w: 1.48053253}
        tangentMode: 0
      - time: .799999893
        value: {x: -0, y: -0, z: -.95105648, w: -.309017062}
        inSlope: {x: 0, y: 0, z: -.485347986, w: 1.49374866}
        outSlope: {x: 0, y: 0, z: -.485347986, w: 1.49374866}
        tangentMode: -2147483648
      - time: .816666543
        value: {x: -0, y: -0, z: -.958819687, w: -.284015447}
        inSlope: {x: 0, y: 0, z: -.446078598, w: 1.505934}
        outSlope: {x: 0, y: 0, z: -.446078598, w: 1.505934}
        tangentMode: 1072064094
      - time: .833333194
        value: {x: -0, y: -0, z: -.965925753, w: -.258819312}
        inSlope: {x: 0, y: 0, z: -.406505257, w: 1.51709557}
        outSlope: {x: 0, y: 0, z: -.406505257, w: 1.51709557}
        tangentMode: 0
      - time: .849999845
        value: {x: -0, y: -0, z: -.97236985, w: -.233445644}
        inSlope: {x: 0, y: 0, z: -.366652966, w: 1.52722085}
        outSlope: {x: 0, y: 0, z: -.366652966, w: 1.52722085}
        tangentMode: 0
      - time: .866666496
        value: {x: -0, y: -0, z: -.978147507, w: -.207911998}
        inSlope: {x: 0, y: 0, z: -.326550305, w: 1.53629827}
        outSlope: {x: 0, y: 0, z: -.326550305, w: 1.53629827}
        tangentMode: 0
      - time: .883333147
        value: {x: -0, y: -0, z: -.98325485, w: -.182235748}
        inSlope: {x: 0, y: 0, z: -.286224186, w: 1.54431987}
        outSlope: {x: 0, y: 0, z: -.286224186, w: 1.54431987}
        tangentMode: -2147483648
      - time: .899999797
        value: {x: -0, y: -0, z: -.987688303, w: -.156434715}
        inSlope: {x: 0, y: 0, z: -.245699525, w: 1.55127573}
        outSlope: {x: 0, y: 0, z: -.245699525, w: 1.55127573}
        tangentMode: -1062859134
      - time: .916666448
        value: {x: -0, y: -0, z: -.991444826, w: -.130526602}
        inSlope: {x: 0, y: 0, z: -.205006793, w: 1.55717599}
        outSlope: {x: 0, y: 0, z: -.205006793, w: 1.55717599}
        tangentMode: 601268708
      - time: .933333099
        value: {x: -0, y: -0, z: -.994521856, w: -.104528897}
        inSlope: {x: 0, y: 0, z: -.164174587, w: 1.56201267}
        outSlope: {x: 0, y: 0, z: -.164174587, w: 1.56201267}
        tangentMode: -1077361806
      - time: .94999975
        value: {x: -0, y: -0, z: -.996917307, w: -.0784595609}
        inSlope: {x: 0, y: 0, z: -.123229742, w: 1.56577849}
        outSlope: {x: 0, y: 0, z: -.123229742, w: 1.56577849}
        tangentMode: -1077456466
      - time: .9666664
        value: {x: -0, y: -0, z: -.99862951, w: -.0523363315}
        inSlope: {x: 0, y: 0, z: -.0822008401, w: 1.56846774}
        outSlope: {x: 0, y: 0, z: -.0822008401, w: 1.56846774}
        tangentMode: -1101732145
      - time: .983333051
        value: {x: -0, y: -0, z: -.999657333, w: -.0261773523}
        inSlope: {x: 0, y: 0, z: -.0411147289, w: 1.5700748}
        outSlope: {x: 0, y: 0, z: -.0411147289, w: 1.5700748}
        tangentMode: 1044102076
      - time: .999999702
        value: {x: -0, y: -0, z: -1, w: -5.52335052e-07}
        inSlope: {x: 0, y: 0, z: -3.7252903e-08, w: 1.57061386}
        outSlope: {x: 0, y: 0, z: -3.7252903e-08, w: 1.57061386}
        tangentMode: 0
      - time: 1.01666641
        value: {x: -0, y: -0, z: -.999657333, w: .0261764862}
        inSlope: {x: 0, y: 0, z: .0411129035, w: 1.5700829}
        outSlope: {x: 0, y: 0, z: .0411129035, w: 1.5700829}
        tangentMode: -1078482818
      - time: 1.03333306
        value: {x: -0, y: -0, z: -.99862957, w: .0523355864}
        inSlope: {x: 0, y: 0, z: .082199052, w: 1.56846786}
        outSlope: {x: 0, y: 0, z: .082199052, w: 1.56846786}
        tangentMode: -1078940385
      - time: 1.04999971
        value: {x: -0, y: -0, z: -.996917367, w: .0784586966}
        inSlope: {x: 0, y: 0, z: .123227954, w: 1.56577158}
        outSlope: {x: 0, y: 0, z: .123227954, w: 1.56577158}
        tangentMode: -1089770119
      - time: 1.06666636
        value: {x: -0, y: -0, z: -.994521976, w: .10452792}
        inSlope: {x: 0, y: 0, z: .164172798, w: 1.5620091}
        outSlope: {x: 0, y: 0, z: .164172798, w: 1.5620091}
        tangentMode: 1054168410
      - time: 1.08333302
        value: {x: -0, y: -0, z: -.991444945, w: .130525619}
        inSlope: {x: 0, y: 0, z: .205006793, w: 1.55718338}
        outSlope: {x: 0, y: 0, z: .205006793, w: 1.55718338}
        tangentMode: 0
      - time: 1.09999967
        value: {x: -0, y: -0, z: -.987688422, w: .156433985}
        inSlope: {x: 0, y: 0, z: .245697737, w: 1.55128336}
        outSlope: {x: 0, y: 0, z: .245697737, w: 1.55128336}
        tangentMode: -1081202726
      - time: 1.11666632
        value: {x: -0, y: -0, z: -.983255029, w: .182235017}
        inSlope: {x: 0, y: 0, z: .286222398, w: 1.54431677}
        outSlope: {x: 0, y: 0, z: .286222398, w: 1.54431677}
        tangentMode: -1081962372
      - time: 1.13333297
        value: {x: -0, y: -0, z: -.978147686, w: .207911164}
        inSlope: {x: 0, y: 0, z: .326550305, w: 1.53629518}
        outSlope: {x: 0, y: 0, z: .326550305, w: 1.53629518}
        tangentMode: -1085334594
      - time: 1.14999962
        value: {x: -0, y: -0, z: -.972370028, w: .23344481}
        inSlope: {x: 0, y: 0, z: .366651177, w: 1.52721727}
        outSlope: {x: 0, y: 0, z: .366651177, w: 1.52721727}
        tangentMode: 1059481191
      - time: 1.16666627
        value: {x: -0, y: -0, z: -.965925992, w: .258818358}
        inSlope: {x: 0, y: 0, z: .406503469, w: 1.51709914}
        outSlope: {x: 0, y: 0, z: .406503469, w: 1.51709914}
        tangentMode: 0
      - time: 1.18333292
        value: {x: -0, y: -0, z: -.958819926, w: .284014732}
        inSlope: {x: 0, y: 0, z: .446078598, w: 1.50594199}
        outSlope: {x: 0, y: 0, z: .446078598, w: 1.50594199}
        tangentMode: -1088189898
      - time: 1.19999957
        value: {x: -0, y: -0, z: -.951056719, w: .309016377}
        inSlope: {x: 0, y: 0, z: .485346198, w: 1.49374604}
        outSlope: {x: 0, y: 0, z: .485346198, w: 1.49374604}
        tangentMode: -1090111640
      - time: 1.21666622
        value: {x: -0, y: -0, z: -.942641735, w: .333806217}
        inSlope: {x: 0, y: 0, z: .524281144, w: 1.48052812}
        outSlope: {x: 0, y: 0, z: .524281144, w: 1.48052812}
        tangentMode: -1082702103
      - time: 1.23333287
        value: {x: -0, y: -0, z: -.933580697, w: .358367264}
        inSlope: {x: 0, y: 0, z: .562856734, w: 1.46629357}
        outSlope: {x: 0, y: 0, z: .562856734, w: 1.46629357}
        tangentMode: 1063395871
      - time: 1.24999952
        value: {x: -0, y: -0, z: -.923879862, w: .382682621}
        inSlope: {x: 0, y: 0, z: .601047873, w: 1.45106125}
        outSlope: {x: 0, y: 0, z: .601047873, w: 1.45106125}
        tangentMode: 0
      - time: 1.26666617
        value: {x: -0, y: -0, z: -.913545787, w: .406735927}
        inSlope: {x: 0, y: 0, z: .638825893, w: 1.43483031}
        outSlope: {x: 0, y: 0, z: .638825893, w: 1.43483031}
        tangentMode: -1113040662
      - time: 1.28333282
        value: {x: -0, y: -0, z: -.902585685, w: .430510253}
        inSlope: {x: 0, y: 0, z: .676167667, w: 1.41761589}
        outSlope: {x: 0, y: 0, z: .676167667, w: 1.41761589}
        tangentMode: 1026057729
      - time: 1.29999948
        value: {x: -0, y: -0, z: -.891006887, w: .453989744}
        inSlope: {x: 0, y: 0, z: .713046312, w: 1.39943671}
        outSlope: {x: 0, y: 0, z: .713046312, w: 1.39943671}
        tangentMode: -1082222338
      - time: 1.31666613
        value: {x: -0, y: -0, z: -.878817499, w: .477158099}
        inSlope: {x: 0, y: 0, z: .749431372, w: 1.38028574}
        outSlope: {x: 0, y: 0, z: .749431372, w: 1.38028574}
        tangentMode: 1066331884
      - time: 1.33333278
        value: {x: -0, y: -0, z: -.866025865, w: .499999225}
        inSlope: {x: 0, y: 0, z: .785305023, w: 1.36018801}
        outSlope: {x: 0, y: 0, z: .785305023, w: 1.36018801}
        tangentMode: 0
      - time: 1.34999943
        value: {x: -0, y: -0, z: -.852640688, w: .522497654}
        inSlope: {x: 0, y: 0, z: .820644081, w: 1.33917105}
        outSlope: {x: 0, y: 0, z: .820644081, w: 1.33917105}
        tangentMode: 1056472908
      - time: 1.36666608
        value: {x: -0, y: -0, z: -.838671088, w: .544638216}
        inSlope: {x: 0, y: 0, z: .855421662, w: 1.31723762}
        outSlope: {x: 0, y: 0, z: .855421662, w: 1.31723762}
        tangentMode: 1058659910
      - time: 1.38333273
        value: {x: -0, y: -0, z: -.824126661, w: .566405535}
        inSlope: {x: 0, y: 0, z: .889605522, w: 1.29438698}
        outSlope: {x: 0, y: 0, z: .889605522, w: 1.29438698}
        tangentMode: -1083959033
      - time: 1.39999938
        value: {x: -0, y: -0, z: -.809017599, w: .58778441}
        inSlope: {x: 0, y: 0, z: .923179686, w: 1.27065122}
        outSlope: {x: 0, y: 0, z: .923179686, w: 1.27065122}
        tangentMode: 1068289224
      - time: 1.41666603
        value: {x: -0, y: -0, z: -.793354034, w: .608760536}
        inSlope: {x: 0, y: 0, z: .956129789, w: 1.24605536}
        outSlope: {x: 0, y: 0, z: .956129789, w: 1.24605536}
        tangentMode: 0
      - time: 1.43333268
        value: {x: -0, y: -0, z: -.777146637, w: .629319549}
        inSlope: {x: 0, y: 0, z: .988423586, w: 1.22060478}
        outSlope: {x: 0, y: 0, z: .988423586, w: 1.22060478}
        tangentMode: 1065158996
      - time: 1.44999933
        value: {x: -0, y: -0, z: -.760406613, w: .649447322}
        inSlope: {x: 0, y: 0, z: 1.02003253, w: 1.19430828}
        outSlope: {x: 0, y: 0, z: 1.02003253, w: 1.19430828}
        tangentMode: 1066033872
      - time: 1.46666598
        value: {x: -0, y: -0, z: -.743145585, w: .669129789}
        inSlope: {x: 0, y: 0, z: 1.05094767, w: 1.16719651}
        outSlope: {x: 0, y: 0, z: 1.05094767, w: 1.16719651}
        tangentMode: -1087681487
      - time: 1.48333263
        value: {x: -0, y: -0, z: -.725375056, w: .688353837}
        inSlope: {x: 0, y: 0, z: 1.08114052, w: 1.13928545}
        outSlope: {x: 0, y: 0, z: 1.08114052, w: 1.13928545}
        tangentMode: 1070246564
      - time: 1.49999928
        value: {x: -0, y: -0, z: -.707107604, w: .707105935}
        inSlope: {x: 0, y: 0, z: 1.11059117, w: 1.11059475}
        outSlope: {x: 0, y: 0, z: 1.11059117, w: 1.11059475}
        tangentMode: 0
      - time: 1.51666594
        value: {x: -0, y: -0, z: -.688355386, w: .725373626}
        inSlope: {x: 0, y: 0, z: 1.13928902, w: 1.08114767}
        outSlope: {x: 0, y: 0, z: 1.13928902, w: 1.08114767}
        tangentMode: 1068374729
      - time: 1.53333259
        value: {x: -0, y: -0, z: -.669131339, w: .743144155}
        inSlope: {x: 0, y: 0, z: 1.16719472, w: 1.05094957}
        outSlope: {x: 0, y: 0, z: 1.16719472, w: 1.05094957}
        tangentMode: 1068856364
      - time: 1.54999924
        value: {x: -0, y: -0, z: -.649448931, w: .760405242}
        inSlope: {x: 0, y: 0, z: 1.19429946, w: 1.02003074}
        outSlope: {x: 0, y: 0, z: 1.19429946, w: 1.02003074}
        tangentMode: -1095271371
      - time: 1.56666589
        value: {x: -0, y: -0, z: -.629321396, w: .777145147}
        inSlope: {x: 0, y: 0, z: 1.22059226, w: .988418221}
        outSlope: {x: 0, y: 0, z: 1.22059226, w: .988418221}
        tangentMode: 1072203904
      - time: 1.58333254
        value: {x: -0, y: -0, z: -.608762562, w: .793352485}
        inSlope: {x: 0, y: 0, z: 1.24605179, w: .956131577}
        outSlope: {x: 0, y: 0, z: 1.24605179, w: .956131577}
        tangentMode: 0
      - time: 1.59999919
        value: {x: -0, y: -0, z: -.587786376, w: .809016168}
        inSlope: {x: 0, y: 0, z: 1.27066016, w: .923190415}
        outSlope: {x: 0, y: 0, z: 1.27066016, w: .923190415}
        tangentMode: 1069977682
      - time: 1.61666584
        value: {x: -0, y: -0, z: -.566407263, w: .824125469}
        inSlope: {x: 0, y: 0, z: 1.29438519, w: .889609098}
        outSlope: {x: 0, y: 0, z: 1.29438519, w: .889609098}
        tangentMode: 1070099279
      - time: 1.63333249
        value: {x: -0, y: -0, z: -.544640243, w: .838669777}
        inSlope: {x: 0, y: 0, z: 1.31722879, w: .855421662}
        outSlope: {x: 0, y: 0, z: 1.31722879, w: .855421662}
        tangentMode: 867941678
      - time: 1.64999914
        value: {x: -0, y: -0, z: -.522499681, w: .852639496}
        inSlope: {x: 0, y: 0, z: 1.33917642, w: .820651233}
        outSlope: {x: 0, y: 0, z: 1.33917642, w: .820651233}
        tangentMode: 1037646939
      - time: 1.66666579
        value: {x: -0, y: -0, z: -.500001073, w: .866024792}
        inSlope: {x: 0, y: 0, z: 1.36019242, w: .785308599}
        outSlope: {x: 0, y: 0, z: 1.36019242, w: .785308599}
        tangentMode: 0
      - time: 1.68333244
        value: {x: -0, y: -0, z: -.477159977, w: .878816426}
        inSlope: {x: 0, y: 0, z: 1.38028395, w: .749434948}
        outSlope: {x: 0, y: 0, z: 1.38028395, w: .749434948}
        tangentMode: 1039949536
      - time: 1.69999909
        value: {x: -0, y: -0, z: -.453991652, w: .891005933}
        inSlope: {x: 0, y: 0, z: 1.39942861, w: .7130481}
        outSlope: {x: 0, y: 0, z: 1.39942861, w: .7130481}
        tangentMode: 1048287386
      - time: 1.71666574
        value: {x: -0, y: -0, z: -.430512398, w: .902584672}
        inSlope: {x: 0, y: 0, z: 1.41760778, w: .676167667}
        outSlope: {x: 0, y: 0, z: 1.41760778, w: .676167667}
        tangentMode: -1082593988
      - time: 1.7333324
        value: {x: -0, y: -0, z: -.406738102, w: .913544834}
        inSlope: {x: 0, y: 0, z: 1.43482852, w: .63882947}
        outSlope: {x: 0, y: 0, z: 1.43482852, w: .63882947}
        tangentMode: 1045220557
      - time: 1.74999905
        value: {x: -0, y: -0, z: -.382684827, w: .923878968}
        inSlope: {x: 0, y: 0, z: 1.45105958, w: .60105145}
        outSlope: {x: 0, y: 0, z: 1.45105958, w: .60105145}
        tangentMode: 0
      - time: 1.7666657
        value: {x: -0, y: -0, z: -.358369499, w: .933579862}
        inSlope: {x: 0, y: 0, z: 1.4662962, w: .56286031}
        outSlope: {x: 0, y: 0, z: 1.4662962, w: .56286031}
        tangentMode: 1059920220
      - time: 1.78333235
        value: {x: -0, y: -0, z: -.333808333, w: .94264096}
        inSlope: {x: 0, y: 0, z: 1.48052812, w: .52428472}
        outSlope: {x: 0, y: 0, z: 1.48052812, w: .52428472}
        tangentMode: 1061751299
      - time: 1.799999
        value: {x: -0, y: -0, z: -.309018612, w: .951056004}
        inSlope: {x: 0, y: 0, z: 1.49374413, w: .485349774}
        outSlope: {x: 0, y: 0, z: 1.49374413, w: .485349774}
        tangentMode: -1085081106
      - time: 1.81666565
        value: {x: -0, y: -0, z: -.284016907, w: .95881927}
        inSlope: {x: 0, y: 0, z: 1.50594378, w: .446083963}
        outSlope: {x: 0, y: 0, z: 1.50594378, w: .446083963}
        tangentMode: 1054727651
      - time: 1.8333323
        value: {x: -0, y: -0, z: -.258820534, w: .965925455}
        inSlope: {x: 0, y: 0, z: 1.51709867, w: .406508833}
        outSlope: {x: 0, y: 0, z: 1.51709867, w: .406508833}
        tangentMode: 0
      - time: 1.84999895
        value: {x: -0, y: -0, z: -.233447, w: .972369552}
        inSlope: {x: 0, y: 0, z: 1.52722001, w: .366654754}
        outSlope: {x: 0, y: 0, z: 1.52722001, w: .366654754}
        tangentMode: 1066521627
      - time: 1.8666656
        value: {x: -0, y: -0, z: -.20791325, w: .978147268}
        inSlope: {x: 0, y: 0, z: 1.53629434, w: .326552093}
        outSlope: {x: 0, y: 0, z: 1.53629434, w: .326552093}
        tangentMode: 1067203738
      - time: 1.88333225
        value: {x: -0, y: -0, z: -.182237238, w: .983254611}
        inSlope: {x: 0, y: 0, z: 1.54431629, w: .286224186}
        outSlope: {x: 0, y: 0, z: 1.54431629, w: .286224186}
        tangentMode: -1089404930
      - time: 1.8999989
        value: {x: -0, y: -0, z: -.156436086, w: .987688065}
        inSlope: {x: 0, y: 0, z: 1.55127931, w: .245701313}
        outSlope: {x: 0, y: 0, z: 1.55127931, w: .245701313}
        tangentMode: 1059760811
      - time: 1.91666555
        value: {x: -0, y: -0, z: -.130527973, w: .991444647}
        inSlope: {x: 0, y: 0, z: 1.55717218, w: .205008581}
        outSlope: {x: 0, y: 0, z: 1.55717218, w: .205008581}
        tangentMode: 0
      - time: 1.9333322
        value: {x: -0, y: -0, z: -.104530394, w: .994521677}
        inSlope: {x: 0, y: 0, z: 1.56201243, w: .164176375}
        outSlope: {x: 0, y: 0, z: 1.56201243, w: .164176375}
        tangentMode: 1069136985
      - time: 1.94999886
        value: {x: -0, y: -0, z: -.0784609392, w: .996917188}
        inSlope: {x: 0, y: 0, z: 1.5657748, w: .123233318}
        outSlope: {x: 0, y: 0, z: 1.5657748, w: .123233318}
        tangentMode: 1069495080
      - time: 1.96666551
        value: {x: -0, y: -0, z: -.052337952, w: .998629451}
        inSlope: {x: 0, y: 0, z: 1.56846404, w: .0822026283}
        outSlope: {x: 0, y: 0, z: 1.56846404, w: .0822026283}
        tangentMode: -1100018592
      - time: 1.98333216
        value: {x: -0, y: -0, z: -.0261788573, w: .999657273}
        inSlope: {x: 0, y: 0, z: 1.57008648, w: .0411157794}
        outSlope: {x: 0, y: 0, z: 1.57008648, w: .0411157794}
        tangentMode: 1063675491
      - time: 2
        value: {x: -0, y: -0, z: 8.74227766e-08, w: 1}
        inSlope: {x: 0, y: 0, z: 1.5706259, w: .0205621514}
        outSlope: {x: 0, y: 0, z: 1.5706259, w: .0205621514}
        tangentMode: 0
      m_PreInfinity: 2
      m_PostInfinity: 2
    path: 
  m_CompressedRotationCurves: []
  m_PositionCurves: []
  m_ScaleCurves: []
  m_FloatCurves: []
  m_PPtrCurves: []
  m_SampleRate: 60
  m_WrapMode: 0
  m_Bounds:
    m_Center: {x: 0, y: 0, z: 0}
    m_Extent: {x: 0, y: 0, z: 0}
  m_AnimationClipSettings:
    serializedVersion: 2
    m_StartTime: 0
    m_StopTime: 2
    m_OrientationOffsetY: 0
    m_Level: 0
    m_CycleOffset: 0
    m_LoopTime: 1
    m_LoopBlend: 0
    m_LoopBlendOrientation: 0
    m_LoopBlendPositionY: 0
    m_LoopBlendPositionXZ: 0
    m_KeepOriginalOrientation: 0
    m_KeepOriginalPositionY: 1
    m_KeepOriginalPositionXZ: 0
    m_HeightFromFeet: 0
    m_Mirror: 0
  m_EditorCurves:
  - curve:
      serializedVersion: 2
      m_Curve:
      - time: 0
        value: -0
        inSlope: 0
        outSlope: 0
        tangentMode: 0
      - time: .0166666675
        value: -0
        inSlope: 0
        outSlope: 0
        tangentMode: 0
      - time: .0333333351
        value: -0
        inSlope: 0
        outSlope: 0
        tangentMode: 0
      - time: .0500000045
        value: -0
        inSlope: 0
        outSlope: 0
        tangentMode: 0
      - time: .0666666701
        value: -0
        inSlope: 0
        outSlope: 0
        tangentMode: 0
      - time: .0833333358
        value: -0
        inSlope: 0
        outSlope: 0
        tangentMode: 0
      - time: .100000001
        value: -0
        inSlope: 0
        outSlope: 0
        tangentMode: 0
      - time: .116666667
        value: -0
        inSlope: 0
        outSlope: 0
        tangentMode: 0
      - time: .13333334
        value: -0
        inSlope: 0
        outSlope: 0
        tangentMode: 0
      - time: .150000006
        value: -0
        inSlope: 0
        outSlope: 0
        tangentMode: 0
      - time: .166666672
        value: -0
        inSlope: 0
        outSlope: 0
        tangentMode: 0
      - time: .183333337
        value: -0
        inSlope: 0
        outSlope: 0
        tangentMode: 0
      - time: .200000003
        value: -0
        inSlope: 0
        outSlope: 0
        tangentMode: 0
      - time: .216666669
        value: -0
        inSlope: 0
        outSlope: 0
        tangentMode: 0
      - time: .233333334
        value: -0
        inSlope: 0
        outSlope: 0
        tangentMode: 0
      - time: .25
        value: -0
        inSlope: 0
        outSlope: 0
        tangentMode: 0
      - time: .266666681
        value: -0
        inSlope: 0
        outSlope: 0
        tangentMode: 0
      - time: .283333361
        value: -0
        inSlope: 0
        outSlope: 0
        tangentMode: 0
      - time: .300000042
        value: -0
        inSlope: 0
        outSlope: 0
        tangentMode: 0
      - time: .316666722
        value: -0
        inSlope: 0
        outSlope: 0
        tangentMode: 0
      - time: .333333403
        value: -0
        inSlope: 0
        outSlope: 0
        tangentMode: 0
      - time: .350000083
        value: -0
        inSlope: 0
        outSlope: 0
        tangentMode: 0
      - time: .366666764
        value: -0
        inSlope: 0
        outSlope: 0
        tangentMode: 0
      - time: .383333445
        value: -0
        inSlope: 0
        outSlope: 0
        tangentMode: 0
      - time: .400000125
        value: -0
        inSlope: 0
        outSlope: 0
        tangentMode: 0
      - time: .416666806
        value: -0
        inSlope: 0
        outSlope: 0
        tangentMode: 0
      - time: .433333486
        value: -0
        inSlope: 0
        outSlope: 0
        tangentMode: 0
      - time: .450000167
        value: -0
        inSlope: 0
        outSlope: 0
        tangentMode: 0
      - time: .466666847
        value: -0
        inSlope: 0
        outSlope: 0
        tangentMode: 0
      - time: .483333528
        value: -0
        inSlope: 0
        outSlope: 0
        tangentMode: 0
      - time: .500000179
        value: -0
        inSlope: 0
        outSlope: 0
        tangentMode: 0
      - time: .51666683
        value: -0
        inSlope: 0
        outSlope: 0
        tangentMode: 0
      - time: .53333348
        value: -0
        inSlope: 0
        outSlope: 0
        tangentMode: 0
      - time: .550000131
        value: -0
        inSlope: 0
        outSlope: 0
        tangentMode: 0
      - time: .566666782
        value: -0
        inSlope: 0
        outSlope: 0
        tangentMode: 0
      - time: .583333433
        value: -0
        inSlope: 0
        outSlope: 0
        tangentMode: 0
      - time: .600000083
        value: -0
        inSlope: 0
        outSlope: 0
        tangentMode: 0
      - time: .616666734
        value: -0
        inSlope: 0
        outSlope: 0
        tangentMode: 0
      - time: .633333385
        value: -0
        inSlope: 0
        outSlope: 0
        tangentMode: 0
      - time: .650000036
        value: -0
        inSlope: 0
        outSlope: 0
        tangentMode: 0
      - time: .666666687
        value: -0
        inSlope: 0
        outSlope: 0
        tangentMode: 0
      - time: .683333337
        value: -0
        inSlope: 0
        outSlope: 0
        tangentMode: 0
      - time: .699999988
        value: -0
        inSlope: 0
        outSlope: 0
        tangentMode: 0
      - time: .716666639
        value: -0
        inSlope: 0
        outSlope: 0
        tangentMode: 0
      - time: .73333329
        value: -0
        inSlope: 0
        outSlope: 0
        tangentMode: 0
      - time: .74999994
        value: -0
        inSlope: 0
        outSlope: 0
        tangentMode: 0
      - time: .766666591
        value: -0
        inSlope: 0
        outSlope: 0
        tangentMode: 0
      - time: .783333242
        value: -0
        inSlope: 0
        outSlope: 0
        tangentMode: 0
      - time: .799999893
        value: -0
        inSlope: 0
        outSlope: 0
        tangentMode: 0
      - time: .816666543
        value: -0
        inSlope: 0
        outSlope: 0
        tangentMode: 0
      - time: .833333194
        value: -0
        inSlope: 0
        outSlope: 0
        tangentMode: 0
      - time: .849999845
        value: -0
        inSlope: 0
        outSlope: 0
        tangentMode: 0
      - time: .866666496
        value: -0
        inSlope: 0
        outSlope: 0
        tangentMode: 0
      - time: .883333147
        value: -0
        inSlope: 0
        outSlope: 0
        tangentMode: 0
      - time: .899999797
        value: -0
        inSlope: 0
        outSlope: 0
        tangentMode: 0
      - time: .916666448
        value: -0
        inSlope: 0
        outSlope: 0
        tangentMode: 0
      - time: .933333099
        value: -0
        inSlope: 0
        outSlope: 0
        tangentMode: 0
      - time: .94999975
        value: -0
        inSlope: 0
        outSlope: 0
        tangentMode: 0
      - time: .9666664
        value: -0
        inSlope: 0
        outSlope: 0
        tangentMode: 0
      - time: .983333051
        value: -0
        inSlope: 0
        outSlope: 0
        tangentMode: 0
      - time: .999999702
        value: -0
        inSlope: 0
        outSlope: 0
        tangentMode: 0
      - time: 1.01666641
        value: -0
        inSlope: 0
        outSlope: 0
        tangentMode: 0
      - time: 1.03333306
        value: -0
        inSlope: 0
        outSlope: 0
        tangentMode: 0
      - time: 1.04999971
        value: -0
        inSlope: 0
        outSlope: 0
        tangentMode: 0
      - time: 1.06666636
        value: -0
        inSlope: 0
        outSlope: 0
        tangentMode: 0
      - time: 1.08333302
        value: -0
        inSlope: 0
        outSlope: 0
        tangentMode: 0
      - time: 1.09999967
        value: -0
        inSlope: 0
        outSlope: 0
        tangentMode: 0
      - time: 1.11666632
        value: -0
        inSlope: 0
        outSlope: 0
        tangentMode: 0
      - time: 1.13333297
        value: -0
        inSlope: 0
        outSlope: 0
        tangentMode: 0
      - time: 1.14999962
        value: -0
        inSlope: 0
        outSlope: 0
        tangentMode: 0
      - time: 1.16666627
        value: -0
        inSlope: 0
        outSlope: 0
        tangentMode: 0
      - time: 1.18333292
        value: -0
        inSlope: 0
        outSlope: 0
        tangentMode: 0
      - time: 1.19999957
        value: -0
        inSlope: 0
        outSlope: 0
        tangentMode: 0
      - time: 1.21666622
        value: -0
        inSlope: 0
        outSlope: 0
        tangentMode: 0
      - time: 1.23333287
        value: -0
        inSlope: 0
        outSlope: 0
        tangentMode: 0
      - time: 1.24999952
        value: -0
        inSlope: 0
        outSlope: 0
        tangentMode: 0
      - time: 1.26666617
        value: -0
        inSlope: 0
        outSlope: 0
        tangentMode: 0
      - time: 1.28333282
        value: -0
        inSlope: 0
        outSlope: 0
        tangentMode: 0
      - time: 1.29999948
        value: -0
        inSlope: 0
        outSlope: 0
        tangentMode: 0
      - time: 1.31666613
        value: -0
        inSlope: 0
        outSlope: 0
        tangentMode: 0
      - time: 1.33333278
        value: -0
        inSlope: 0
        outSlope: 0
        tangentMode: 0
      - time: 1.34999943
        value: -0
        inSlope: 0
        outSlope: 0
        tangentMode: 0
      - time: 1.36666608
        value: -0
        inSlope: 0
        outSlope: 0
        tangentMode: 0
      - time: 1.38333273
        value: -0
        inSlope: 0
        outSlope: 0
        tangentMode: 0
      - time: 1.39999938
        value: -0
        inSlope: 0
        outSlope: 0
        tangentMode: 0
      - time: 1.41666603
        value: -0
        inSlope: 0
        outSlope: 0
        tangentMode: 0
      - time: 1.43333268
        value: -0
        inSlope: 0
        outSlope: 0
        tangentMode: 0
      - time: 1.44999933
        value: -0
        inSlope: 0
        outSlope: 0
        tangentMode: 0
      - time: 1.46666598
        value: -0
        inSlope: 0
        outSlope: 0
        tangentMode: 0
      - time: 1.48333263
        value: -0
        inSlope: 0
        outSlope: 0
        tangentMode: 0
      - time: 1.49999928
        value: -0
        inSlope: 0
        outSlope: 0
        tangentMode: 0
      - time: 1.51666594
        value: -0
        inSlope: 0
        outSlope: 0
        tangentMode: 0
      - time: 1.53333259
        value: -0
        inSlope: 0
        outSlope: 0
        tangentMode: 0
      - time: 1.54999924
        value: -0
        inSlope: 0
        outSlope: 0
        tangentMode: 0
      - time: 1.56666589
        value: -0
        inSlope: 0
        outSlope: 0
        tangentMode: 0
      - time: 1.58333254
        value: -0
        inSlope: 0
        outSlope: 0
        tangentMode: 0
      - time: 1.59999919
        value: -0
        inSlope: 0
        outSlope: 0
        tangentMode: 0
      - time: 1.61666584
        value: -0
        inSlope: 0
        outSlope: 0
        tangentMode: 0
      - time: 1.63333249
        value: -0
        inSlope: 0
        outSlope: 0
        tangentMode: 0
      - time: 1.64999914
        value: -0
        inSlope: 0
        outSlope: 0
        tangentMode: 0
      - time: 1.66666579
        value: -0
        inSlope: 0
        outSlope: 0
        tangentMode: 0
      - time: 1.68333244
        value: -0
        inSlope: 0
        outSlope: 0
        tangentMode: 0
      - time: 1.69999909
        value: -0
        inSlope: 0
        outSlope: 0
        tangentMode: 0
      - time: 1.71666574
        value: -0
        inSlope: 0
        outSlope: 0
        tangentMode: 0
      - time: 1.7333324
        value: -0
        inSlope: 0
        outSlope: 0
        tangentMode: 0
      - time: 1.74999905
        value: -0
        inSlope: 0
        outSlope: 0
        tangentMode: 0
      - time: 1.7666657
        value: -0
        inSlope: 0
        outSlope: 0
        tangentMode: 0
      - time: 1.78333235
        value: -0
        inSlope: 0
        outSlope: 0
        tangentMode: 0
      - time: 1.799999
        value: -0
        inSlope: 0
        outSlope: 0
        tangentMode: 0
      - time: 1.81666565
        value: -0
        inSlope: 0
        outSlope: 0
        tangentMode: 0
      - time: 1.8333323
        value: -0
        inSlope: 0
        outSlope: 0
        tangentMode: 0
      - time: 1.84999895
        value: -0
        inSlope: 0
        outSlope: 0
        tangentMode: 0
      - time: 1.8666656
        value: -0
        inSlope: 0
        outSlope: 0
        tangentMode: 0
      - time: 1.88333225
        value: -0
        inSlope: 0
        outSlope: 0
        tangentMode: 0
      - time: 1.8999989
        value: -0
        inSlope: 0
        outSlope: 0
        tangentMode: 0
      - time: 1.91666555
        value: -0
        inSlope: 0
        outSlope: 0
        tangentMode: 0
      - time: 1.9333322
        value: -0
        inSlope: 0
        outSlope: 0
        tangentMode: 0
      - time: 1.94999886
        value: -0
        inSlope: 0
        outSlope: 0
        tangentMode: 0
      - time: 1.96666551
        value: -0
        inSlope: 0
        outSlope: 0
        tangentMode: 0
      - time: 1.98333216
        value: -0
        inSlope: 0
        outSlope: 0
        tangentMode: 0
      - time: 2
        value: -0
        inSlope: 0
        outSlope: 0
        tangentMode: 0
      m_PreInfinity: 2
      m_PostInfinity: 2
    attribute: m_LocalRotation.x
    path: 
    classID: 4
    script: {fileID: 0}
  - curve:
      serializedVersion: 2
      m_Curve:
      - time: 0
        value: -0
        inSlope: 0
        outSlope: 0
        tangentMode: 0
      - time: .0166666675
        value: -0
        inSlope: 0
        outSlope: 0
        tangentMode: 0
      - time: .0333333351
        value: -0
        inSlope: 0
        outSlope: 0
        tangentMode: 0
      - time: .0500000045
        value: -0
        inSlope: 0
        outSlope: 0
        tangentMode: 0
      - time: .0666666701
        value: -0
        inSlope: 0
        outSlope: 0
        tangentMode: 0
      - time: .0833333358
        value: -0
        inSlope: 0
        outSlope: 0
        tangentMode: 0
      - time: .100000001
        value: -0
        inSlope: 0
        outSlope: 0
        tangentMode: 0
      - time: .116666667
        value: -0
        inSlope: 0
        outSlope: 0
        tangentMode: 0
      - time: .13333334
        value: -0
        inSlope: 0
        outSlope: 0
        tangentMode: 0
      - time: .150000006
        value: -0
        inSlope: 0
        outSlope: 0
        tangentMode: 0
      - time: .166666672
        value: -0
        inSlope: 0
        outSlope: 0
        tangentMode: 0
      - time: .183333337
        value: -0
        inSlope: 0
        outSlope: 0
        tangentMode: 0
      - time: .200000003
        value: -0
        inSlope: 0
        outSlope: 0
        tangentMode: 0
      - time: .216666669
        value: -0
        inSlope: 0
        outSlope: 0
        tangentMode: 0
      - time: .233333334
        value: -0
        inSlope: 0
        outSlope: 0
        tangentMode: 0
      - time: .25
        value: -0
        inSlope: 0
        outSlope: 0
        tangentMode: 0
      - time: .266666681
        value: -0
        inSlope: 0
        outSlope: 0
        tangentMode: 0
      - time: .283333361
        value: -0
        inSlope: 0
        outSlope: 0
        tangentMode: 0
      - time: .300000042
        value: -0
        inSlope: 0
        outSlope: 0
        tangentMode: 0
      - time: .316666722
        value: -0
        inSlope: 0
        outSlope: 0
        tangentMode: 0
      - time: .333333403
        value: -0
        inSlope: 0
        outSlope: 0
        tangentMode: 0
      - time: .350000083
        value: -0
        inSlope: 0
        outSlope: 0
        tangentMode: 0
      - time: .366666764
        value: -0
        inSlope: 0
        outSlope: 0
        tangentMode: 0
      - time: .383333445
        value: -0
        inSlope: 0
        outSlope: 0
        tangentMode: 0
      - time: .400000125
        value: -0
        inSlope: 0
        outSlope: 0
        tangentMode: 0
      - time: .416666806
        value: -0
        inSlope: 0
        outSlope: 0
        tangentMode: 0
      - time: .433333486
        value: -0
        inSlope: 0
        outSlope: 0
        tangentMode: 0
      - time: .450000167
        value: -0
        inSlope: 0
        outSlope: 0
        tangentMode: 0
      - time: .466666847
        value: -0
        inSlope: 0
        outSlope: 0
        tangentMode: 0
      - time: .483333528
        value: -0
        inSlope: 0
        outSlope: 0
        tangentMode: 0
      - time: .500000179
        value: -0
        inSlope: 0
        outSlope: 0
        tangentMode: 0
      - time: .51666683
        value: -0
        inSlope: 0
        outSlope: 0
        tangentMode: 0
      - time: .53333348
        value: -0
        inSlope: 0
        outSlope: 0
        tangentMode: 0
      - time: .550000131
        value: -0
        inSlope: 0
        outSlope: 0
        tangentMode: 0
      - time: .566666782
        value: -0
        inSlope: 0
        outSlope: 0
        tangentMode: 0
      - time: .583333433
        value: -0
        inSlope: 0
        outSlope: 0
        tangentMode: 0
      - time: .600000083
        value: -0
        inSlope: 0
        outSlope: 0
        tangentMode: 0
      - time: .616666734
        value: -0
        inSlope: 0
        outSlope: 0
        tangentMode: 0
      - time: .633333385
        value: -0
        inSlope: 0
        outSlope: 0
        tangentMode: 0
      - time: .650000036
        value: -0
        inSlope: 0
        outSlope: 0
        tangentMode: 0
      - time: .666666687
        value: -0
        inSlope: 0
        outSlope: 0
        tangentMode: 0
      - time: .683333337
        value: -0
        inSlope: 0
        outSlope: 0
        tangentMode: 0
      - time: .699999988
        value: -0
        inSlope: 0
        outSlope: 0
        tangentMode: 0
      - time: .716666639
        value: -0
        inSlope: 0
        outSlope: 0
        tangentMode: 0
      - time: .73333329
        value: -0
        inSlope: 0
        outSlope: 0
        tangentMode: 0
      - time: .74999994
        value: -0
        inSlope: 0
        outSlope: 0
        tangentMode: 0
      - time: .766666591
        value: -0
        inSlope: 0
        outSlope: 0
        tangentMode: 0
      - time: .783333242
        value: -0
        inSlope: 0
        outSlope: 0
        tangentMode: 0
      - time: .799999893
        value: -0
        inSlope: 0
        outSlope: 0
        tangentMode: 0
      - time: .816666543
        value: -0
        inSlope: 0
        outSlope: 0
        tangentMode: 0
      - time: .833333194
        value: -0
        inSlope: 0
        outSlope: 0
        tangentMode: 0
      - time: .849999845
        value: -0
        inSlope: 0
        outSlope: 0
        tangentMode: 0
      - time: .866666496
        value: -0
        inSlope: 0
        outSlope: 0
        tangentMode: 0
      - time: .883333147
        value: -0
        inSlope: 0
        outSlope: 0
        tangentMode: 0
      - time: .899999797
        value: -0
        inSlope: 0
        outSlope: 0
        tangentMode: 0
      - time: .916666448
        value: -0
        inSlope: 0
        outSlope: 0
        tangentMode: 0
      - time: .933333099
        value: -0
        inSlope: 0
        outSlope: 0
        tangentMode: 0
      - time: .94999975
        value: -0
        inSlope: 0
        outSlope: 0
        tangentMode: 0
      - time: .9666664
        value: -0
        inSlope: 0
        outSlope: 0
        tangentMode: 0
      - time: .983333051
        value: -0
        inSlope: 0
        outSlope: 0
        tangentMode: 0
      - time: .999999702
        value: -0
        inSlope: 0
        outSlope: 0
        tangentMode: 0
      - time: 1.01666641
        value: -0
        inSlope: 0
        outSlope: 0
        tangentMode: 0
      - time: 1.03333306
        value: -0
        inSlope: 0
        outSlope: 0
        tangentMode: 0
      - time: 1.04999971
        value: -0
        inSlope: 0
        outSlope: 0
        tangentMode: 0
      - time: 1.06666636
        value: -0
        inSlope: 0
        outSlope: 0
        tangentMode: 0
      - time: 1.08333302
        value: -0
        inSlope: 0
        outSlope: 0
        tangentMode: 0
      - time: 1.09999967
        value: -0
        inSlope: 0
        outSlope: 0
        tangentMode: 0
      - time: 1.11666632
        value: -0
        inSlope: 0
        outSlope: 0
        tangentMode: 0
      - time: 1.13333297
        value: -0
        inSlope: 0
        outSlope: 0
        tangentMode: 0
      - time: 1.14999962
        value: -0
        inSlope: 0
        outSlope: 0
        tangentMode: 0
      - time: 1.16666627
        value: -0
        inSlope: 0
        outSlope: 0
        tangentMode: 0
      - time: 1.18333292
        value: -0
        inSlope: 0
        outSlope: 0
        tangentMode: 0
      - time: 1.19999957
        value: -0
        inSlope: 0
        outSlope: 0
        tangentMode: 0
      - time: 1.21666622
        value: -0
        inSlope: 0
        outSlope: 0
        tangentMode: 0
      - time: 1.23333287
        value: -0
        inSlope: 0
        outSlope: 0
        tangentMode: 0
      - time: 1.24999952
        value: -0
        inSlope: 0
        outSlope: 0
        tangentMode: 0
      - time: 1.26666617
        value: -0
        inSlope: 0
        outSlope: 0
        tangentMode: 0
      - time: 1.28333282
        value: -0
        inSlope: 0
        outSlope: 0
        tangentMode: 0
      - time: 1.29999948
        value: -0
        inSlope: 0
        outSlope: 0
        tangentMode: 0
      - time: 1.31666613
        value: -0
        inSlope: 0
        outSlope: 0
        tangentMode: 0
      - time: 1.33333278
        value: -0
        inSlope: 0
        outSlope: 0
        tangentMode: 0
      - time: 1.34999943
        value: -0
        inSlope: 0
        outSlope: 0
        tangentMode: 0
      - time: 1.36666608
        value: -0
        inSlope: 0
        outSlope: 0
        tangentMode: 0
      - time: 1.38333273
        value: -0
        inSlope: 0
        outSlope: 0
        tangentMode: 0
      - time: 1.39999938
        value: -0
        inSlope: 0
        outSlope: 0
        tangentMode: 0
      - time: 1.41666603
        value: -0
        inSlope: 0
        outSlope: 0
        tangentMode: 0
      - time: 1.43333268
        value: -0
        inSlope: 0
        outSlope: 0
        tangentMode: 0
      - time: 1.44999933
        value: -0
        inSlope: 0
        outSlope: 0
        tangentMode: 0
      - time: 1.46666598
        value: -0
        inSlope: 0
        outSlope: 0
        tangentMode: 0
      - time: 1.48333263
        value: -0
        inSlope: 0
        outSlope: 0
        tangentMode: 0
      - time: 1.49999928
        value: -0
        inSlope: 0
        outSlope: 0
        tangentMode: 0
      - time: 1.51666594
        value: -0
        inSlope: 0
        outSlope: 0
        tangentMode: 0
      - time: 1.53333259
        value: -0
        inSlope: 0
        outSlope: 0
        tangentMode: 0
      - time: 1.54999924
        value: -0
        inSlope: 0
        outSlope: 0
        tangentMode: 0
      - time: 1.56666589
        value: -0
        inSlope: 0
        outSlope: 0
        tangentMode: 0
      - time: 1.58333254
        value: -0
        inSlope: 0
        outSlope: 0
        tangentMode: 0
      - time: 1.59999919
        value: -0
        inSlope: 0
        outSlope: 0
        tangentMode: 0
      - time: 1.61666584
        value: -0
        inSlope: 0
        outSlope: 0
        tangentMode: 0
      - time: 1.63333249
        value: -0
        inSlope: 0
        outSlope: 0
        tangentMode: 0
      - time: 1.64999914
        value: -0
        inSlope: 0
        outSlope: 0
        tangentMode: 0
      - time: 1.66666579
        value: -0
        inSlope: 0
        outSlope: 0
        tangentMode: 0
      - time: 1.68333244
        value: -0
        inSlope: 0
        outSlope: 0
        tangentMode: 0
      - time: 1.69999909
        value: -0
        inSlope: 0
        outSlope: 0
        tangentMode: 0
      - time: 1.71666574
        value: -0
        inSlope: 0
        outSlope: 0
        tangentMode: 0
      - time: 1.7333324
        value: -0
        inSlope: 0
        outSlope: 0
        tangentMode: 0
      - time: 1.74999905
        value: -0
        inSlope: 0
        outSlope: 0
        tangentMode: 0
      - time: 1.7666657
        value: -0
        inSlope: 0
        outSlope: 0
        tangentMode: 0
      - time: 1.78333235
        value: -0
        inSlope: 0
        outSlope: 0
        tangentMode: 0
      - time: 1.799999
        value: -0
        inSlope: 0
        outSlope: 0
        tangentMode: 0
      - time: 1.81666565
        value: -0
        inSlope: 0
        outSlope: 0
        tangentMode: 0
      - time: 1.8333323
        value: -0
        inSlope: 0
        outSlope: 0
        tangentMode: 0
      - time: 1.84999895
        value: -0
        inSlope: 0
        outSlope: 0
        tangentMode: 0
      - time: 1.8666656
        value: -0
        inSlope: 0
        outSlope: 0
        tangentMode: 0
      - time: 1.88333225
        value: -0
        inSlope: 0
        outSlope: 0
        tangentMode: 0
      - time: 1.8999989
        value: -0
        inSlope: 0
        outSlope: 0
        tangentMode: 0
      - time: 1.91666555
        value: -0
        inSlope: 0
        outSlope: 0
        tangentMode: 0
      - time: 1.9333322
        value: -0
        inSlope: 0
        outSlope: 0
        tangentMode: 0
      - time: 1.94999886
        value: -0
        inSlope: 0
        outSlope: 0
        tangentMode: 0
      - time: 1.96666551
        value: -0
        inSlope: 0
        outSlope: 0
        tangentMode: 0
      - time: 1.98333216
        value: -0
        inSlope: 0
        outSlope: 0
        tangentMode: 0
      - time: 2
        value: -0
        inSlope: 0
        outSlope: 0
        tangentMode: 0
      m_PreInfinity: 2
      m_PostInfinity: 2
    attribute: m_LocalRotation.y
    path: 
    classID: 4
    script: {fileID: 0}
  - curve:
      serializedVersion: 2
      m_Curve:
      - time: 0
        value: -0
        inSlope: -1.57061708
        outSlope: -1.57061708
        tangentMode: 0
      - time: .0166666675
        value: -.0261769518
        inSlope: -1.57007885
        outSlope: -1.57007885
        tangentMode: 0
      - time: .0333333351
        value: -.0523359627
        inSlope: -1.56846452
        outSlope: -1.56846452
        tangentMode: 0
      - time: .0500000045
        value: -.0784591064
        inSlope: -1.56577516
        outSlope: -1.56577516
        tangentMode: 0
      - time: .0666666701
        value: -.104528472
        inSlope: -1.56201291
        outSlope: -1.56201291
        tangentMode: 0
      - time: .0833333358
        value: -.1305262
        inSlope: -1.55718017
        outSlope: -1.55718017
        tangentMode: 0
      - time: .100000001
        value: -.156434476
        inSlope: -1.55127978
        outSlope: -1.55127978
        tangentMode: 0
      - time: .116666667
        value: -.182235524
        inSlope: -1.54431689
        outSlope: -1.54431689
        tangentMode: 0
      - time: .13333334
        value: -.207911715
        inSlope: -1.53629577
        outSlope: -1.53629577
        tangentMode: 0
      - time: .150000006
        value: -.233445391
        inSlope: -1.52722001
        outSlope: -1.52722001
        tangentMode: 0
      - time: .166666672
        value: -.258819044
        inSlope: -1.51709914
        outSlope: -1.51709914
        tangentMode: 0
      - time: .183333337
        value: -.284015357
        inSlope: -1.50593889
        outSlope: -1.50593889
        tangentMode: 0
      - time: .200000003
        value: -.309017003
        inSlope: -1.49374557
        outSlope: -1.49374557
        tangentMode: 0
      - time: .216666669
        value: -.333806872
        inSlope: -1.48052859
        outSlope: -1.48052859
        tangentMode: 0
      - time: .233333334
        value: -.35836795
        inSlope: -1.46629763
        outSlope: -1.46629763
        tangentMode: 0
      - time: .25
        value: -.382683456
        inSlope: -1.45106113
        outSlope: -1.45106113
        tangentMode: 0
      - time: .266666681
        value: -.406736672
        inSlope: -1.43482947
        outSlope: -1.43482947
        tangentMode: 0
      - time: .283333361
        value: -.430511147
        inSlope: -1.41761601
        outSlope: -1.41761601
        tangentMode: 0
      - time: .300000042
        value: -.453990579
        inSlope: -1.3994298
        outSlope: -1.3994298
        tangentMode: 0
      - time: .316666722
        value: -.477158844
        inSlope: -1.38028324
        outSlope: -1.38028324
        tangentMode: 0
      - time: .333333403
        value: -.50000006
        inSlope: -1.36019349
        outSlope: -1.36019349
        tangentMode: 0
      - time: .350000083
        value: -.522498667
        inSlope: -1.33917224
        outSlope: -1.33917224
        tangentMode: 0
      - time: .366666764
        value: -.54463917
        inSlope: -1.31722999
        outSlope: -1.31722999
        tangentMode: 0
      - time: .383333445
        value: -.566406369
        inSlope: -1.29438651
        outSlope: -1.29438651
        tangentMode: 0
      - time: .400000125
        value: -.587785423
        inSlope: -1.27065432
        outSlope: -1.27065432
        tangentMode: 0
      - time: .416666806
        value: -.608761549
        inSlope: -1.2460531
        outSlope: -1.2460531
        tangentMode: 0
      - time: .433333486
        value: -.629320562
        inSlope: -1.22060084
        outSlope: -1.22060084
        tangentMode: 0
      - time: .450000167
        value: -.649448276
        inSlope: -1.19430625
        outSlope: -1.19430625
        tangentMode: 0
      - time: .466666847
        value: -.669130802
        inSlope: -1.16719627
        outSlope: -1.16719627
        tangentMode: 0
      - time: .483333528
        value: -.68835485
        inSlope: -1.13928437
        outSlope: -1.13928437
        tangentMode: 0
      - time: .500000179
        value: -.707106948
        inSlope: -1.11059117
        outSlope: -1.11059117
        tangentMode: 0
      - time: .51666683
        value: -.72537452
        inSlope: -1.08114231
        outSlope: -1.08114231
        tangentMode: 0
      - time: .53333348
        value: -.743144989
        inSlope: -1.05094767
        outSlope: -1.05094767
        tangentMode: 0
      - time: .550000131
        value: -.760406077
        inSlope: -1.02003431
        outSlope: -1.02003431
        tangentMode: 0
      - time: .566666782
        value: -.777146101
        inSlope: -.988421798
        outSlope: -.988421798
        tangentMode: 0
      - time: .583333433
        value: -.793353438
        inSlope: -.956129789
        outSlope: -.956129789
        tangentMode: 0
      - time: .600000083
        value: -.809017062
        inSlope: -.92318505
        outSlope: -.92318505
        tangentMode: 0
      - time: .616666734
        value: -.824126244
        inSlope: -.88960731
        outSlope: -.88960731
        tangentMode: 0
      - time: .633333385
        value: -.838670611
        inSlope: -.855419874
        outSlope: -.855419874
        tangentMode: 0
      - time: .650000036
        value: -.852640212
        inSlope: -.820645869
        outSlope: -.820645869
        tangentMode: 0
      - time: .666666687
        value: -.866025448
        inSlope: -.785308599
        outSlope: -.785308599
        tangentMode: 0
      - time: .683333337
        value: -.878817141
        inSlope: -.74943316
        outSlope: -.74943316
        tangentMode: 0
      - time: .699999988
        value: -.891006529
        inSlope: -.713044524
        outSlope: -.713044524
        tangentMode: 0
      - time: .716666639
        value: -.902585268
        inSlope: -.676167667
        outSlope: -.676167667
        tangentMode: 0
      - time: .73333329
        value: -.91354543
        inSlope: -.638827682
        outSlope: -.638827682
        tangentMode: 0
      - time: .74999994
        value: -.923879504
        inSlope: -.601049662
        outSlope: -.601049662
        tangentMode: 0
      - time: .766666591
        value: -.933580399
        inSlope: -.562858522
        outSlope: -.562858522
        tangentMode: 0
      - time: .783333242
        value: -.942641437
        inSlope: -.524282932
        outSlope: -.524282932
        tangentMode: 0
      - time: .799999893
        value: -.95105648
        inSlope: -.485347986
        outSlope: -.485347986
        tangentMode: 0
      - time: .816666543
        value: -.958819687
        inSlope: -.446078598
        outSlope: -.446078598
        tangentMode: 0
      - time: .833333194
        value: -.965925753
        inSlope: -.406505257
        outSlope: -.406505257
        tangentMode: 0
      - time: .849999845
        value: -.97236985
        inSlope: -.366652966
        outSlope: -.366652966
        tangentMode: 0
      - time: .866666496
        value: -.978147507
        inSlope: -.326550305
        outSlope: -.326550305
        tangentMode: 0
      - time: .883333147
        value: -.98325485
        inSlope: -.286224186
        outSlope: -.286224186
        tangentMode: 0
      - time: .899999797
        value: -.987688303
        inSlope: -.245699525
        outSlope: -.245699525
        tangentMode: 0
      - time: .916666448
        value: -.991444826
        inSlope: -.205006793
        outSlope: -.205006793
        tangentMode: 0
      - time: .933333099
        value: -.994521856
        inSlope: -.164174587
        outSlope: -.164174587
        tangentMode: 0
      - time: .94999975
        value: -.996917307
        inSlope: -.123229742
        outSlope: -.123229742
        tangentMode: 0
      - time: .9666664
        value: -.99862951
        inSlope: -.0822008401
        outSlope: -.0822008401
        tangentMode: 0
      - time: .983333051
        value: -.999657333
        inSlope: -.0411147289
        outSlope: -.0411147289
        tangentMode: 0
      - time: .999999702
        value: -1
        inSlope: -3.7252903e-08
        outSlope: -3.7252903e-08
        tangentMode: 0
      - time: 1.01666641
        value: -.999657333
        inSlope: .0411129035
        outSlope: .0411129035
        tangentMode: 0
      - time: 1.03333306
        value: -.99862957
        inSlope: .082199052
        outSlope: .082199052
        tangentMode: 0
      - time: 1.04999971
        value: -.996917367
        inSlope: .123227954
        outSlope: .123227954
        tangentMode: 0
      - time: 1.06666636
        value: -.994521976
        inSlope: .164172798
        outSlope: .164172798
        tangentMode: 0
      - time: 1.08333302
        value: -.991444945
        inSlope: .205006793
        outSlope: .205006793
        tangentMode: 0
      - time: 1.09999967
        value: -.987688422
        inSlope: .245697737
        outSlope: .245697737
        tangentMode: 0
      - time: 1.11666632
        value: -.983255029
        inSlope: .286222398
        outSlope: .286222398
        tangentMode: 0
      - time: 1.13333297
        value: -.978147686
        inSlope: .326550305
        outSlope: .326550305
        tangentMode: 0
      - time: 1.14999962
        value: -.972370028
        inSlope: .366651177
        outSlope: .366651177
        tangentMode: 0
      - time: 1.16666627
        value: -.965925992
        inSlope: .406503469
        outSlope: .406503469
        tangentMode: 0
      - time: 1.18333292
        value: -.958819926
        inSlope: .446078598
        outSlope: .446078598
        tangentMode: 0
      - time: 1.19999957
        value: -.951056719
        inSlope: .485346198
        outSlope: .485346198
        tangentMode: 0
      - time: 1.21666622
        value: -.942641735
        inSlope: .524281144
        outSlope: .524281144
        tangentMode: 0
      - time: 1.23333287
        value: -.933580697
        inSlope: .562856734
        outSlope: .562856734
        tangentMode: 0
      - time: 1.24999952
        value: -.923879862
        inSlope: .601047873
        outSlope: .601047873
        tangentMode: 0
      - time: 1.26666617
        value: -.913545787
        inSlope: .638825893
        outSlope: .638825893
        tangentMode: 0
      - time: 1.28333282
        value: -.902585685
        inSlope: .676167667
        outSlope: .676167667
        tangentMode: 0
      - time: 1.29999948
        value: -.891006887
        inSlope: .713046312
        outSlope: .713046312
        tangentMode: 0
      - time: 1.31666613
        value: -.878817499
        inSlope: .749431372
        outSlope: .749431372
        tangentMode: 0
      - time: 1.33333278
        value: -.866025865
        inSlope: .785305023
        outSlope: .785305023
        tangentMode: 0
      - time: 1.34999943
        value: -.852640688
        inSlope: .820644081
        outSlope: .820644081
        tangentMode: 0
      - time: 1.36666608
        value: -.838671088
        inSlope: .855421662
        outSlope: .855421662
        tangentMode: 0
      - time: 1.38333273
        value: -.824126661
        inSlope: .889605522
        outSlope: .889605522
        tangentMode: 0
      - time: 1.39999938
        value: -.809017599
        inSlope: .923179686
        outSlope: .923179686
        tangentMode: 0
      - time: 1.41666603
        value: -.793354034
        inSlope: .956129789
        outSlope: .956129789
        tangentMode: 0
      - time: 1.43333268
        value: -.777146637
        inSlope: .988423586
        outSlope: .988423586
        tangentMode: 0
      - time: 1.44999933
        value: -.760406613
        inSlope: 1.02003253
        outSlope: 1.02003253
        tangentMode: 0
      - time: 1.46666598
        value: -.743145585
        inSlope: 1.05094767
        outSlope: 1.05094767
        tangentMode: 0
      - time: 1.48333263
        value: -.725375056
        inSlope: 1.08114052
        outSlope: 1.08114052
        tangentMode: 0
      - time: 1.49999928
        value: -.707107604
        inSlope: 1.11059117
        outSlope: 1.11059117
        tangentMode: 0
      - time: 1.51666594
        value: -.688355386
        inSlope: 1.13928902
        outSlope: 1.13928902
        tangentMode: 0
      - time: 1.53333259
        value: -.669131339
        inSlope: 1.16719472
        outSlope: 1.16719472
        tangentMode: 0
      - time: 1.54999924
        value: -.649448931
        inSlope: 1.19429946
        outSlope: 1.19429946
        tangentMode: 0
      - time: 1.56666589
        value: -.629321396
        inSlope: 1.22059226
        outSlope: 1.22059226
        tangentMode: 0
      - time: 1.58333254
        value: -.608762562
        inSlope: 1.24605179
        outSlope: 1.24605179
        tangentMode: 0
      - time: 1.59999919
        value: -.587786376
        inSlope: 1.27066016
        outSlope: 1.27066016
        tangentMode: 0
      - time: 1.61666584
        value: -.566407263
        inSlope: 1.29438519
        outSlope: 1.29438519
        tangentMode: 0
      - time: 1.63333249
        value: -.544640243
        inSlope: 1.31722879
        outSlope: 1.31722879
        tangentMode: 0
      - time: 1.64999914
        value: -.522499681
        inSlope: 1.33917642
        outSlope: 1.33917642
        tangentMode: 0
      - time: 1.66666579
        value: -.500001073
        inSlope: 1.36019242
        outSlope: 1.36019242
        tangentMode: 0
      - time: 1.68333244
        value: -.477159977
        inSlope: 1.38028395
        outSlope: 1.38028395
        tangentMode: 0
      - time: 1.69999909
        value: -.453991652
        inSlope: 1.39942861
        outSlope: 1.39942861
        tangentMode: 0
      - time: 1.71666574
        value: -.430512398
        inSlope: 1.41760778
        outSlope: 1.41760778
        tangentMode: 0
      - time: 1.7333324
        value: -.406738102
        inSlope: 1.43482852
        outSlope: 1.43482852
        tangentMode: 0
      - time: 1.74999905
        value: -.382684827
        inSlope: 1.45105958
        outSlope: 1.45105958
        tangentMode: 0
      - time: 1.7666657
        value: -.358369499
        inSlope: 1.4662962
        outSlope: 1.4662962
        tangentMode: 0
      - time: 1.78333235
        value: -.333808333
        inSlope: 1.48052812
        outSlope: 1.48052812
        tangentMode: 0
      - time: 1.799999
        value: -.309018612
        inSlope: 1.49374413
        outSlope: 1.49374413
        tangentMode: 0
      - time: 1.81666565
        value: -.284016907
        inSlope: 1.50594378
        outSlope: 1.50594378
        tangentMode: 0
      - time: 1.8333323
        value: -.258820534
        inSlope: 1.51709867
        outSlope: 1.51709867
        tangentMode: 0
      - time: 1.84999895
        value: -.233447
        inSlope: 1.52722001
        outSlope: 1.52722001
        tangentMode: 0
      - time: 1.8666656
        value: -.20791325
        inSlope: 1.53629434
        outSlope: 1.53629434
        tangentMode: 0
      - time: 1.88333225
        value: -.182237238
        inSlope: 1.54431629
        outSlope: 1.54431629
        tangentMode: 0
      - time: 1.8999989
        value: -.156436086
        inSlope: 1.55127931
        outSlope: 1.55127931
        tangentMode: 0
      - time: 1.91666555
        value: -.130527973
        inSlope: 1.55717218
        outSlope: 1.55717218
        tangentMode: 0
      - time: 1.9333322
        value: -.104530394
        inSlope: 1.56201243
        outSlope: 1.56201243
        tangentMode: 0
      - time: 1.94999886
        value: -.0784609392
        inSlope: 1.5657748
        outSlope: 1.5657748
        tangentMode: 0
      - time: 1.96666551
        value: -.052337952
        inSlope: 1.56846404
        outSlope: 1.56846404
        tangentMode: 0
      - time: 1.98333216
        value: -.0261788573
        inSlope: 1.57008648
        outSlope: 1.57008648
        tangentMode: 0
      - time: 2
        value: 8.74227766e-08
        inSlope: 1.5706259
        outSlope: 1.5706259
        tangentMode: 0
      m_PreInfinity: 2
      m_PostInfinity: 2
    attribute: m_LocalRotation.z
    path: 
    classID: 4
    script: {fileID: 0}
  - curve:
      serializedVersion: 2
      m_Curve:
      - time: 0
        value: -1
        inSlope: .0205600243
        outSlope: .0205600243
        tangentMode: 0
      - time: .0166666675
        value: -.999657333
        inSlope: .0411146842
        outSlope: .0411146842
        tangentMode: 0
      - time: .0333333351
        value: -.99862951
        inSlope: .0822007582
        outSlope: .0822007582
        tangentMode: 0
      - time: .0500000045
        value: -.996917307
        inSlope: .123227835
        outSlope: .123227835
        tangentMode: 0
      - time: .0666666701
        value: -.994521916
        inSlope: .164172664
        outSlope: .164172664
        tangentMode: 0
      - time: .0833333358
        value: -.991444886
        inSlope: .205006614
        outSlope: .205006614
        tangentMode: 0
      - time: .100000001
        value: -.987688363
        inSlope: .245699316
        outSlope: .245699316
        tangentMode: 0
      - time: .116666667
        value: -.98325491
        inSlope: .286222041
        outSlope: .286222041
        tangentMode: 0
      - time: .13333334
        value: -.978147626
        inSlope: .326549947
        outSlope: .326549947
        tangentMode: 0
      - time: .150000006
        value: -.972369909
        inSlope: .366654426
        outSlope: .366654426
        tangentMode: 0
      - time: .166666672
        value: -.965925813
        inSlope: .406504899
        outSlope: .406504899
        tangentMode: 0
      - time: .183333337
        value: -.958819747
        inSlope: .446078211
        outSlope: .446078211
        tangentMode: 0
      - time: .200000003
        value: -.95105654
        inSlope: .485347569
        outSlope: .485347569
        tangentMode: 0
      - time: .216666669
        value: -.942641497
        inSlope: .524284303
        outSlope: .524284303
        tangentMode: 0
      - time: .233333334
        value: -.933580399
        inSlope: .562859833
        outSlope: .562859833
        tangentMode: 0
      - time: .25
        value: -.923879504
        inSlope: .601048827
        outSlope: .601048827
        tangentMode: 0
      - time: .266666681
        value: -.91354543
        inSlope: .638826549
        outSlope: .638826549
        tangentMode: 0
      - time: .283333361
        value: -.902585268
        inSlope: .676168203
        outSlope: .676168203
        tangentMode: 0
      - time: .300000042
        value: -.89100647
        inSlope: .713045001
        outSlope: .713045001
        tangentMode: 0
      - time: .316666722
        value: -.878817081
        inSlope: .749431849
        outSlope: .749431849
        tangentMode: 0
      - time: .333333403
        value: -.866025388
        inSlope: .785309017
        outSlope: .785309017
        tangentMode: 0
      - time: .350000083
        value: -.852640092
        inSlope: .820646167
        outSlope: .820646167
        tangentMode: 0
      - time: .366666764
        value: -.838670492
        inSlope: .855418324
        outSlope: .855418324
        tangentMode: 0
      - time: .383333445
        value: -.824126124
        inSlope: .889607549
        outSlope: .889607549
        tangentMode: 0
      - time: .400000125
        value: -.809016883
        inSlope: .92318517
        outSlope: .92318517
        tangentMode: 0
      - time: .416666806
        value: -.79335326
        inSlope: .956131577
        outSlope: .956131577
        tangentMode: 0
      - time: .433333486
        value: -.777145803
        inSlope: .988423586
        outSlope: .988423586
        tangentMode: 0
      - time: .450000167
        value: -.760405779
        inSlope: 1.02003431
        outSlope: 1.02003431
        tangentMode: 0
      - time: .466666847
        value: -.743144631
        inSlope: 1.05094945
        outSlope: 1.05094945
        tangentMode: 0
      - time: .483333528
        value: -.725374103
        inSlope: 1.08114135
        outSlope: 1.08114135
        tangentMode: 0
      - time: .500000179
        value: -.70710659
        inSlope: 1.11059117
        outSlope: 1.11059117
        tangentMode: 0
      - time: .51666683
        value: -.688354433
        inSlope: 1.13928545
        outSlope: 1.13928545
        tangentMode: 0
      - time: .53333348
        value: -.669130445
        inSlope: 1.16719651
        outSlope: 1.16719651
        tangentMode: 0
      - time: .550000131
        value: -.649447918
        inSlope: 1.19430828
        outSlope: 1.19430828
        tangentMode: 0
      - time: .566666782
        value: -.629320204
        inSlope: 1.22059941
        outSlope: 1.22059941
        tangentMode: 0
      - time: .583333433
        value: -.608761311
        inSlope: 1.24605358
        outSlope: 1.24605358
        tangentMode: 0
      - time: .600000083
        value: -.587785125
        inSlope: 1.27065659
        outSlope: 1.27065659
        tangentMode: 0
      - time: .616666734
        value: -.566406131
        inSlope: 1.29438519
        outSlope: 1.29438519
        tangentMode: 0
      - time: .633333385
        value: -.544638991
        inSlope: 1.31723046
        outSlope: 1.31723046
        tangentMode: 0
      - time: .650000036
        value: -.522498488
        inSlope: 1.33917189
        outSlope: 1.33917189
        tangentMode: 0
      - time: .666666687
        value: -.49999997
        inSlope: 1.36019325
        outSlope: 1.36019325
        tangentMode: 0
      - time: .683333337
        value: -.477158755
        inSlope: 1.38028479
        outSlope: 1.38028479
        tangentMode: 0
      - time: .699999988
        value: -.453990519
        inSlope: 1.39942956
        outSlope: 1.39942956
        tangentMode: 0
      - time: .716666639
        value: -.430511147
        inSlope: 1.41761494
        outSlope: 1.41761494
        tangentMode: 0
      - time: .73333329
        value: -.406736732
        inSlope: 1.43482947
        outSlope: 1.43482947
        tangentMode: 0
      - time: .74999994
        value: -.382683545
        inSlope: 1.45106041
        outSlope: 1.45106041
        tangentMode: 0
      - time: .766666591
        value: -.358368099
        inSlope: 1.46629715
        outSlope: 1.46629715
        tangentMode: 0
      - time: .783333242
        value: -.333807021
        inSlope: 1.48053253
        outSlope: 1.48053253
        tangentMode: 0
      - time: .799999893
        value: -.309017062
        inSlope: 1.49374866
        outSlope: 1.49374866
        tangentMode: 0
      - time: .816666543
        value: -.284015447
        inSlope: 1.505934
        outSlope: 1.505934
        tangentMode: 0
      - time: .833333194
        value: -.258819312
        inSlope: 1.51709557
        outSlope: 1.51709557
        tangentMode: 0
      - time: .849999845
        value: -.233445644
        inSlope: 1.52722085
        outSlope: 1.52722085
        tangentMode: 0
      - time: .866666496
        value: -.207911998
        inSlope: 1.53629827
        outSlope: 1.53629827
        tangentMode: 0
      - time: .883333147
        value: -.182235748
        inSlope: 1.54431987
        outSlope: 1.54431987
        tangentMode: 0
      - time: .899999797
        value: -.156434715
        inSlope: 1.55127573
        outSlope: 1.55127573
        tangentMode: 0
      - time: .916666448
        value: -.130526602
        inSlope: 1.55717599
        outSlope: 1.55717599
        tangentMode: 0
      - time: .933333099
        value: -.104528897
        inSlope: 1.56201267
        outSlope: 1.56201267
        tangentMode: 0
      - time: .94999975
        value: -.0784595609
        inSlope: 1.56577849
        outSlope: 1.56577849
        tangentMode: 0
      - time: .9666664
        value: -.0523363315
        inSlope: 1.56846774
        outSlope: 1.56846774
        tangentMode: 0
      - time: .983333051
        value: -.0261773523
        inSlope: 1.5700748
        outSlope: 1.5700748
        tangentMode: 0
      - time: .999999702
        value: -5.52335052e-07
        inSlope: 1.57061386
        outSlope: 1.57061386
        tangentMode: 0
      - time: 1.01666641
        value: .0261764862
        inSlope: 1.5700829
        outSlope: 1.5700829
        tangentMode: 0
      - time: 1.03333306
        value: .0523355864
        inSlope: 1.56846786
        outSlope: 1.56846786
        tangentMode: 0
      - time: 1.04999971
        value: .0784586966
        inSlope: 1.56577158
        outSlope: 1.56577158
        tangentMode: 0
      - time: 1.06666636
        value: .10452792
        inSlope: 1.5620091
        outSlope: 1.5620091
        tangentMode: 0
      - time: 1.08333302
        value: .130525619
        inSlope: 1.55718338
        outSlope: 1.55718338
        tangentMode: 0
      - time: 1.09999967
        value: .156433985
        inSlope: 1.55128336
        outSlope: 1.55128336
        tangentMode: 0
      - time: 1.11666632
        value: .182235017
        inSlope: 1.54431677
        outSlope: 1.54431677
        tangentMode: 0
      - time: 1.13333297
        value: .207911164
        inSlope: 1.53629518
        outSlope: 1.53629518
        tangentMode: 0
      - time: 1.14999962
        value: .23344481
        inSlope: 1.52721727
        outSlope: 1.52721727
        tangentMode: 0
      - time: 1.16666627
        value: .258818358
        inSlope: 1.51709914
        outSlope: 1.51709914
        tangentMode: 0
      - time: 1.18333292
        value: .284014732
        inSlope: 1.50594199
        outSlope: 1.50594199
        tangentMode: 0
      - time: 1.19999957
        value: .309016377
        inSlope: 1.49374604
        outSlope: 1.49374604
        tangentMode: 0
      - time: 1.21666622
        value: .333806217
        inSlope: 1.48052812
        outSlope: 1.48052812
        tangentMode: 0
      - time: 1.23333287
        value: .358367264
        inSlope: 1.46629357
        outSlope: 1.46629357
        tangentMode: 0
      - time: 1.24999952
        value: .382682621
        inSlope: 1.45106125
        outSlope: 1.45106125
        tangentMode: 0
      - time: 1.26666617
        value: .406735927
        inSlope: 1.43483031
        outSlope: 1.43483031
        tangentMode: 0
      - time: 1.28333282
        value: .430510253
        inSlope: 1.41761589
        outSlope: 1.41761589
        tangentMode: 0
      - time: 1.29999948
        value: .453989744
        inSlope: 1.39943671
        outSlope: 1.39943671
        tangentMode: 0
      - time: 1.31666613
        value: .477158099
        inSlope: 1.38028574
        outSlope: 1.38028574
        tangentMode: 0
      - time: 1.33333278
        value: .499999225
        inSlope: 1.36018801
        outSlope: 1.36018801
        tangentMode: 0
      - time: 1.34999943
        value: .522497654
        inSlope: 1.33917105
        outSlope: 1.33917105
        tangentMode: 0
      - time: 1.36666608
        value: .544638216
        inSlope: 1.31723762
        outSlope: 1.31723762
        tangentMode: 0
      - time: 1.38333273
        value: .566405535
        inSlope: 1.29438698
        outSlope: 1.29438698
        tangentMode: 0
      - time: 1.39999938
        value: .58778441
        inSlope: 1.27065122
        outSlope: 1.27065122
        tangentMode: 0
      - time: 1.41666603
        value: .608760536
        inSlope: 1.24605536
        outSlope: 1.24605536
        tangentMode: 0
      - time: 1.43333268
        value: .629319549
        inSlope: 1.22060478
        outSlope: 1.22060478
        tangentMode: 0
      - time: 1.44999933
        value: .649447322
        inSlope: 1.19430828
        outSlope: 1.19430828
        tangentMode: 0
      - time: 1.46666598
        value: .669129789
        inSlope: 1.16719651
        outSlope: 1.16719651
        tangentMode: 0
      - time: 1.48333263
        value: .688353837
        inSlope: 1.13928545
        outSlope: 1.13928545
        tangentMode: 0
      - time: 1.49999928
        value: .707105935
        inSlope: 1.11059475
        outSlope: 1.11059475
        tangentMode: 0
      - time: 1.51666594
        value: .725373626
        inSlope: 1.08114767
        outSlope: 1.08114767
        tangentMode: 0
      - time: 1.53333259
        value: .743144155
        inSlope: 1.05094957
        outSlope: 1.05094957
        tangentMode: 0
      - time: 1.54999924
        value: .760405242
        inSlope: 1.02003074
        outSlope: 1.02003074
        tangentMode: 0
      - time: 1.56666589
        value: .777145147
        inSlope: .988418221
        outSlope: .988418221
        tangentMode: 0
      - time: 1.58333254
        value: .793352485
        inSlope: .956131577
        outSlope: .956131577
        tangentMode: 0
      - time: 1.59999919
        value: .809016168
        inSlope: .923190415
        outSlope: .923190415
        tangentMode: 0
      - time: 1.61666584
        value: .824125469
        inSlope: .889609098
        outSlope: .889609098
        tangentMode: 0
      - time: 1.63333249
        value: .838669777
        inSlope: .855421662
        outSlope: .855421662
        tangentMode: 0
      - time: 1.64999914
        value: .852639496
        inSlope: .820651233
        outSlope: .820651233
        tangentMode: 0
      - time: 1.66666579
        value: .866024792
        inSlope: .785308599
        outSlope: .785308599
        tangentMode: 0
      - time: 1.68333244
        value: .878816426
        inSlope: .749434948
        outSlope: .749434948
        tangentMode: 0
      - time: 1.69999909
        value: .891005933
        inSlope: .7130481
        outSlope: .7130481
        tangentMode: 0
      - time: 1.71666574
        value: .902584672
        inSlope: .676167667
        outSlope: .676167667
        tangentMode: 0
      - time: 1.7333324
        value: .913544834
        inSlope: .63882947
        outSlope: .63882947
        tangentMode: 0
      - time: 1.74999905
        value: .923878968
        inSlope: .60105145
        outSlope: .60105145
        tangentMode: 0
      - time: 1.7666657
        value: .933579862
        inSlope: .56286031
        outSlope: .56286031
        tangentMode: 0
      - time: 1.78333235
        value: .94264096
        inSlope: .52428472
        outSlope: .52428472
        tangentMode: 0
      - time: 1.799999
        value: .951056004
        inSlope: .485349774
        outSlope: .485349774
        tangentMode: 0
      - time: 1.81666565
        value: .95881927
        inSlope: .446083963
        outSlope: .446083963
        tangentMode: 0
      - time: 1.8333323
        value: .965925455
        inSlope: .406508833
        outSlope: .406508833
        tangentMode: 0
      - time: 1.84999895
        value: .972369552
        inSlope: .366654754
        outSlope: .366654754
        tangentMode: 0
      - time: 1.8666656
        value: .978147268
        inSlope: .326552093
        outSlope: .326552093
        tangentMode: 0
      - time: 1.88333225
        value: .983254611
        inSlope: .286224186
        outSlope: .286224186
        tangentMode: 0
      - time: 1.8999989
        value: .987688065
        inSlope: .245701313
        outSlope: .245701313
        tangentMode: 0
      - time: 1.91666555
        value: .991444647
        inSlope: .205008581
        outSlope: .205008581
        tangentMode: 0
      - time: 1.9333322
        value: .994521677
        inSlope: .164176375
        outSlope: .164176375
        tangentMode: 0
      - time: 1.94999886
        value: .996917188
        inSlope: .123233318
        outSlope: .123233318
        tangentMode: 0
      - time: 1.96666551
        value: .998629451
        inSlope: .0822026283
        outSlope: .0822026283
        tangentMode: 0
      - time: 1.98333216
        value: .999657273
        inSlope: .0411157794
        outSlope: .0411157794
        tangentMode: 0
      - time: 2
        value: 1
        inSlope: .0205621514
        outSlope: .0205621514
        tangentMode: 0
      m_PreInfinity: 2
      m_PostInfinity: 2
    attribute: m_LocalRotation.w
    path: 
    classID: 4
    script: {fileID: 0}
  m_EulerEditorCurves:
  - curve:
      serializedVersion: 2
      m_Curve:
      - time: 0
        value: 0
        inSlope: 0
        outSlope: 0
        tangentMode: 10
      - time: 2
        value: 0
        inSlope: 0
        outSlope: 0
        tangentMode: 10
      m_PreInfinity: 2
      m_PostInfinity: 2
    attribute: localEulerAnglesBaked.x
    path: 
    classID: 4
    script: {fileID: 0}
  - curve:
      serializedVersion: 2
      m_Curve:
      - time: 0
        value: 0
        inSlope: 0
        outSlope: 0
        tangentMode: 10
      - time: 2
        value: 0
        inSlope: 0
        outSlope: 0
        tangentMode: 10
      m_PreInfinity: 2
      m_PostInfinity: 2
    attribute: localEulerAnglesBaked.y
    path: 
    classID: 4
    script: {fileID: 0}
  - curve:
      serializedVersion: 2
      m_Curve:
      - time: 0
        value: 0
        inSlope: 180
        outSlope: 180
        tangentMode: 10
      - time: 2
        value: 360
        inSlope: 180
        outSlope: 180
        tangentMode: 10
      m_PreInfinity: 2
      m_PostInfinity: 2
    attribute: localEulerAnglesBaked.z
    path: 
    classID: 4
    script: {fileID: 0}
  m_Events: []
