%YAML 1.1
%TAG !u! tag:unity3d.com,2011:
--- !u!21 &2100000
Material:
  serializedVersion: 3
  m_ObjectHideFlags: 0
  m_PrefabParentObject: {fileID: 0}
  m_PrefabInternal: {fileID: 0}
  m_Name: buildings_b
  m_Shader: {fileID: 23, guid: 0000000000000000f000000000000000, type: 0}
  m_ShaderKeywords: []
  m_CustomRenderQueue: -1
  m_SavedProperties:
    serializedVersion: 2
    m_TexEnvs:
      data:
        first:
          name: _MainTex
        second:
          m_Texture: {fileID: 2800000, guid: eb6742be59eb7174883f6b4f05b5116f, type: 3}
          m_Scale: {x: 1, y: 1}
          m_Offset: {x: 0, y: 0}
      data:
        first:
          name: _BumpMap
        second:
          m_Texture: {fileID: 2800000, guid: 6f537f860d89e444cab762379c04c44d, type: 3}
          m_Scale: {x: 1, y: 1}
          m_Offset: {x: 0, y: 0}
      data:
        first:
          name: _Cube
        second:
          m_Texture: {fileID: 8900000, guid: 6993f1ee3ff1a4a3a8fec59e7cc67bde, type: 3}
          m_Scale: {x: 1, y: 1}
          m_Offset: {x: 0, y: 0}
    m_Floats:
      data:
        first:
          name: _Shininess
        second: .308867931
    m_Colors:
      data:
        first:
          name: _Color
        second: {r: .708955228, g: .708955228, b: .708955228, a: 1}
      data:
        first:
          name: _SpecColor
        second: {r: .567164183, g: .58832705, b: .58832705, a: 1}
      data:
        first:
          name: _ReflectColor
        second: {r: .223880589, g: .223880589, b: .223880589, a: 0}
--- !u!1002 &2100001
EditorExtensionImpl:
  serializedVersion: 6
